{
	"info": {
		"_postman_id": "27db5611-9b47-4a51-b684-3d0b793b4562",
		"name": "HW10-collection",
		"schema": "https://schema.getpostman.com/json/collection/v2.1.0/collection.json",
		"_exporter_id": "30722445"
	},
	"item": [
		{
			"name": "get posts",
			"event": [
				{
					"listen": "test",
					"script": {
						"exec": [
							"var template = `\r",
							"<style type=\"text/css\">\r",
							"    .tftable {font-size:16px;color:#111111;width:100%;border-width: 1px;border-color: #87ceeb;border-collapse: collapse;}\r",
							"    .tftable th {font-size:18px;background-color:#87ceeb;border-width: 1px;padding: 8px;border-style: solid;border-color: #87ceeb;text-align:left;}\r",
							"    .tftable tr {background-color:#ffffff;}\r",
							"    .tftable td {font-size:14px;border-width: 1px;padding: 8px;border-style: solid;border-color: #87ceeb;}\r",
							"    .tftable tr:hover {background-color:#e0ffff;}\r",
							"</style>\r",
							"\r",
							"<table class=\"tftable\" border=\"1\">\r",
							"    <tr>\r",
							"        <th>User ID</th>\r",
							"        <th>ID</th>\r",
							"        <th>Title</th>\r",
							"        <th>Body</th>\r",
							"    </tr>\r",
							"    \r",
							"    {{#each response}}\r",
							"        <tr>\r",
							"            <td>{{userId}}</td>\r",
							"            <td>{{id}}</td>\r",
							"            <td>{{title}}</td>\r",
							"            <td>{{body}}</td>\r",
							"        </tr>\r",
							"    {{/each}}\r",
							"</table>\r",
							"`;\r",
							"\r",
							"function constructVisualizerPayload() {\r",
							"    return {response: pm.response.json()}\r",
							"}\r",
							"\r",
							"pm.visualizer.set(template, constructVisualizerPayload());"
						],
						"type": "text/javascript",
						"packages": {}
					}
				}
			],
			"protocolProfileBehavior": {
				"disableBodyPruning": true
			},
			"request": {
				"method": "GET",
				"header": [],
				"body": {
					"mode": "raw",
					"raw": "",
					"options": {
						"raw": {
							"language": "json"
						}
					}
				},
				"url": {
					"raw": "{{API_HOST}}/post",
					"host": [
						"{{API_HOST}}"
					],
					"path": [
						"post"
					]
				}
			},
			"response": []
		},
		{
			"name": "delete post",
			"request": {
				"method": "DELETE",
				"header": [],
				"url": {
					"raw": "{{API_HOST}}/posts/1",
					"host": [
						"{{API_HOST}}"
					],
					"path": [
						"posts",
						"1"
					]
				}
			},
			"response": []
		},
		{
			"name": "get single post",
			"request": {
				"method": "GET",
				"header": [],
				"url": {
					"raw": "{{API_HOST}}/post/1",
					"host": [
						"{{API_HOST}}"
					],
					"path": [
						"post",
						"1"
					]
				}
			},
			"response": []
		},
		{
			"name": "update post",
			"request": {
				"method": "PUT",
				"header": [],
				"body": {
					"mode": "raw",
					"raw": "{\r\n\"title\": \"Вода повертається в Каховське водосховище\",\r\n\"content\": \"В Інституті зоології ім. І. Шмальгаузена НАН України зазначили, що на Великому Лузі вперше за 50 років водопілля.\",\r\n\"genre\": \"Other\"\r\n}",
					"options": {
						"raw": {
							"language": "json"
						}
					}
				},
				"url": {
					"raw": "{{API_HOST}}/post/7",
					"host": [
						"{{API_HOST}}"
					],
					"path": [
						"post",
						"7"
					]
				}
			},
			"response": []
		},
		{
			"name": "create post",
			"request": {
				"method": "POST",
				"header": [],
				"body": {
					"mode": "raw",
					"raw": "{\r\n\"userId\": 111,\r\n\"title\": \"test\",\r\n\"body\": \"test text\"\r\n}",
					"options": {
						"raw": {
							"language": "json"
						}
					}
				},
				"url": {
					"raw": "{{API_HOST}}/post",
					"host": [
						"{{API_HOST}}"
					],
					"path": [
						"post"
					]
				}
			},
			"response": []
		},
		{
			"name": "create user",
			"request": {
				"method": "POST",
				"header": [],
				"body": {
					"mode": "raw",
					"raw": "{\r\n\"username\": \"Max\",\r\n\"password\": \"11111\",\r\n\"email\": \"max@gmail.com\",\r\n\"phone\": \"0671112233\"\r\n}",
					"options": {
						"raw": {
							"language": "json"
						}
					}
				},
				"url": {
					"raw": "{{API_HOST}}/register",
					"host": [
						"{{API_HOST}}"
					],
					"path": [
						"register"
					]
				}
			},
			"response": []
		},
		{
			"name": "login",
			"request": {
				"method": "POST",
				"header": [],
				"body": {
					"mode": "raw",
					"raw": "{\r\n\"username\": \"Max\",\r\n\"password\": \"11111\"\r\n}",
					"options": {
						"raw": {
							"language": "json"
						}
					}
				},
				"url": {
					"raw": "{{API_HOST}}/login",
					"host": [
						"{{API_HOST}}"
					],
					"path": [
						"login"
					]
				}
			},
			"response": []
		}
	]
}